Data Science for Public Policy - 2 Introduction to the tidyverse
…
We’re going to learn seven functions and one new piece of syntax from library(dplyr) that will be our main tools for manipulating tidy frames. These functions and a few extensions outlined in the Data Transformation Cheat Sheet are the core of data analysis in the Tidyverse.

2.4.1 select()

select() drops columns from a dataframe and/or reorders the columns in a dataframe. The arguments after the name of the dataframe should be the names of columns you wish to keep, without quotes. All other columns not listed are dropped.

select(.data = asec, year, month, serial)

# A tibble: 157,959 × 3
    year month serial
   <dbl> <chr>  <dbl>
 1  2020 March      1
 2  2020 March      1
 3  2020 March      2
 4  2020 March      2
 5  2020 March      3
 6  2020 March      4
 7  2020 March      4
 8  2020 March      5
 9  2020 March      5
10  2020 March      5
# ℹ 157,949 more rows

This works great until the goal is to select 99 of 100 variables. Fortunately, - can be used to remove variables. You can also select all but multiple variables by listing them with the - symbol separated by commas.

select(.data = asec, -asecflag)

# A tibble: 157,959 × 16
    year serial month   cpsid asecwth pernum  cpsidp asecwt ftype ftotval inctot
   <dbl>  <dbl> <chr>   <dbl>   <dbl>  <dbl>   <dbl>  <dbl> <chr>   <dbl>  <dbl>
 1  2020      1 March 2.02e13   1553.      1 2.02e13  1553. Prim…  127449  52500
 2  2020      1 March 2.02e13   1553.      2 2.02e13  1553. Prim…  127449  74949
 3  2020      2 March 2.02e13    990.      1 2.02e13   990. Prim…   64680  44000
 4  2020      2 March 2.02e13    990.      2 2.02e13   990. Prim…   64680  20680
 5  2020      3 March 2.02e13   1505.      1 2.02e13  1505. Nonf…   40002  40002
 6  2020      4 March 2.02e13   1431.      1 2.02e13  1431. Prim…    8424      0
 7  2020      4 March 2.02e13   1431.      2 2.02e13  1197. Prim…    8424   8424
 8  2020      5 March 2.02e13   1133.      1 2.02e13  1133. Prim…   59114    610
 9  2020      5 March 2.02e13   1133.      2 2.02e13  1133. Prim…   59114  58001
10  2020      5 March 2.02e13   1133.      3 2.02e13  1322. Prim…   59114    503
# ℹ 157,949 more rows
# ℹ 5 more variables: incwage <dbl>, offpov <chr>, offpovuniv <chr>,
#   offtotval <dbl>, offcutoff <dbl>
…
These are a subset of the tidyselect selection language and helpers which enable users to apply library(dplyr) functions to select variables.

Exercise 1

Select pernum and inctot from asec.

pull() is related to select() but can only select one variable. What is the other difference with pull()?

2.4.2 rename()

rename() renames columns in a data frame. The pattern is new_name = old_name.

rename(.data = asec, serial_number = serial)

# A tibble: 157,959 × 17
    year serial_number month   cpsid asecflag asecwth pernum  cpsidp asecwt
   <dbl>         <dbl> <chr>   <dbl>    <dbl>   <dbl>  <dbl>   <dbl>  <dbl>
 1  2020             1 March 2.02e13        1   1553.      1 2.02e13  1553.
 2  2020             1 March 2.02e13        1   1553.      2 2.02e13  1553.
 3  2020             2 March 2.02e13        1    990.      1 2.02e13   990.
 4  2020             2 March 2.02e13        1    990.      2 2.02e13   990.
 5  2020             3 March 2.02e13        1   1505.      1 2.02e13  1505.
 6  2020             4 March 2.02e13        1   1431.      1 2.02e13  1431.
 7  2020             4 March 2.02e13        1   1431.      2 2.02e13  1197.
 8  2020             5 March 2.02e13        1   1133.      1 2.02e13  1133.
 9  2020             5 March 2.02e13        1   1133.      2 2.02e13  1133.
10  2020             5 March 2.02e13        1   1133.      3 2.02e13  1322.
# ℹ 157,949 more rows
# ℹ 8 more variables: ftype <chr>, ftotval <dbl>, inctot <dbl>, incwage <dbl>,
#   offpov <chr>, offpovuniv <chr>, offtotval <dbl>, offcutoff <dbl>

You can also rename a selection of variables using rename_with(). The .cols argument is used to select the columns to rename and takes a tidyselect statement like those we introduced above. Here, we’re using the where() selection helper which selects all columns where a given condition is TRUE. The default value for the .cols argument is everything() which selects all columns in the dataset.

rename_with(.data = asec, .fn = toupper, .cols = where(is.numeric))

# A tibble: 157,959 × 17
    YEAR SERIAL month   CPSID ASECFLAG ASECWTH PERNUM  CPSIDP ASECWT ftype      
   <dbl>  <dbl> <chr>   <dbl>    <dbl>   <dbl>  <dbl>   <dbl>  <dbl> <chr>      
 1  2020      1 March 2.02e13        1   1553.      1 2.02e13  1553. Primary fa…
 2  2020      1 March 2.02e13        1   1553.      2 2.02e13  1553. Primary fa…
 3  2020      2 March 2.02e13        1    990.      1 2.02e13   990. Primary fa…
 4  2020      2 March 2.02e13        1    990.      2 2.02e13   990. Primary fa…
 5  2020      3 March 2.02e13        1   1505.      1 2.02e13  1505. Nonfamily …
 6  2020      4 March 2.02e13        1   1431.      1 2.02e13  1431. Primary fa…
 7  2020      4 March 2.02e13        1   1431.      2 2.02e13  1197. Primary fa…
 8  2020      5 March 2.02e13        1   1133.      1 2.02e13  1133. Primary fa…
 9  2020      5 March 2.02e13        1   1133.      2 2.02e13  1133. Primary fa…
10  2020      5 March 2.02e13        1   1133.      3 2.02e13  1322. Primary fa…
# ℹ 157,949 more rows
# ℹ 7 more variables: FTOTVAL <dbl>, INCTOT <dbl>, INCWAGE <dbl>, offpov <chr>,
#   offpovuniv <chr>, OFFTOTVAL <dbl>, OFFCUTOFF <dbl>

Most dplyr functions can rename columns simply by prefacing the operation with new_name =. For example, this can be done with select():

select(.data = asec, year, month, serial_number = serial)

# A tibble: 157,959 × 3
    year month serial_number
   <dbl> <chr>         <dbl>
 1  2020 March             1
 2  2020 March             1
 3  2020 March             2
 4  2020 March             2
 5  2020 March             3
 6  2020 March             4
 7  2020 March             4
 8  2020 March             5
 9  2020 March             5
10  2020 March             5
# ℹ 157,949 more rows

2.4.3 filter()

filter() reduces the number of observations in a dataframe. Every column in a dataframe has a name. Rows do not necessarily have names in a dataframe, so rows need to be filtered based on logical conditions.

==, <, >, <=, >=, !=, %in%, and is.na() are all operators that can be used for logical conditions. ! can be used to negate a condition and & and | can be used to combine conditions. | means or.

# return rows with pernum of 1 and incwage > $100,000
filter(.data = asec, pernum == 1 & incwage > 100000)

# A tibble: 5,551 × 17
    year serial month   cpsid asecflag asecwth pernum  cpsidp asecwt ftype      
   <dbl>  <dbl> <chr>   <dbl>    <dbl>   <dbl>  <dbl>   <dbl>  <dbl> <chr>      
 1  2020     28 March 2.02e13        1    678.      1 2.02e13   678. Primary fa…
 2  2020    134 March 0              1    923.      1 0         923. Primary fa…
 3  2020    136 March 2.02e13        1    906.      1 2.02e13   906. Primary fa…
 4  2020    137 March 2.02e13        1   1493.      1 2.02e13  1493. Nonfamily …
 5  2020    359 March 2.02e13        1    863.      1 2.02e13   863. Primary fa…
 6  2020    372 March 2.02e13        1   1338.      1 2.02e13  1338. Primary fa…
 7  2020    404 March 0              1    677.      1 0         677. Primary fa…
 8  2020    420 March 2.02e13        1    747.      1 2.02e13   747. Primary fa…
 9  2020    450 March 2.02e13        1   1309.      1 2.02e13  1309. Primary fa…
10  2020    491 March 0              1   1130.      1 0        1130. Primary fa…
# ℹ 5,541 more rows
# ℹ 7 more variables: ftotval <dbl>, inctot <dbl>, incwage <dbl>, offpov <chr>,
#   offpovuniv <chr>, offtotval <dbl>, offcutoff <dbl>
…
Filter asec to rows with month equal to "March".

Filter asec to rows with inctot less than 999999999.

Filter asec to rows with pernum equal to 3 and inctot less than 999999999.

2.4.4 arrange()

arrange() sorts the rows of a data frame in alpha-numeric order based on the values of a variable or variables. The dataframe is sorted by the first variable first and each subsequent variable is used to break ties. desc() is used to reverse the sort order for a given variable.

# sort pernum is descending order because high pernums are interesting
arrange(.data = asec, desc(pernum))

# A tibble: 157,959 × 17
    year serial month   cpsid asecflag asecwth pernum  cpsidp asecwt ftype      
   <dbl>  <dbl> <chr>   <dbl>    <dbl>   <dbl>  <dbl>   <dbl>  <dbl> <chr>      
 1  2020  91430 March 0              1    505.     16 0         604. Secondary …
 2  2020  91430 March 0              1    505.     15 0         465. Secondary …
 3  2020  91430 March 0              1    505.     14 0         416. Secondary …
 4  2020  15037 March 2.02e13        1   2272.     13 2.02e13  2633. Primary fa…
 5  2020  78495 March 0              1   1279.     13 0        1424. Related su…
 6  2020  91430 March 0              1    505.     13 0         465. Secondary …
 7  2020  15037 March 2.02e13        1   2272.     12 2.02e13  1689. Primary fa…
 8  2020  18102 March 0              1   2468.     12 0        2871. Primary fa…
 9  2020  22282 March 0              1   2801.     12 0        3879. Related su…
10  2020  30274 March 2.02e13        1    653.     12 2.02e13   858. Primary fa…
# ℹ 157,949 more rows
# ℹ 7 more variables: ftotval <dbl>, inctot <dbl>, incwage <dbl>, offpov <chr>,
#   offpovuniv <chr>, offtotval <dbl>, offcutoff <dbl>

Exercise 3

Sort asec in descending order by pernum and ascending order by inctot.

2.4.5 mutate()

mutate() creates new variables or edits existing variables. We can use arithmetic arguments, such as +, -, *, /, and ^. We can also custom functions and functions from packages. For example, we can use library(stringr) for string manipulation and library(lubridate) for date manipulation.

Variables are created by adding a new column name, like inctot_adjusted, to the left of = in mutate().

# adjust inctot for underreporting
mutate(.data = asec, inctot_adjusted = inctot * 1.1)

# A tibble: 157,959 × 18
    year serial month   cpsid asecflag asecwth pernum  cpsidp asecwt ftype      
   <dbl>  <dbl> <chr>   <dbl>    <dbl>   <dbl>  <dbl>   <dbl>  <dbl> <chr>      
 1  2020      1 March 2.02e13        1   1553.      1 2.02e13  1553. Primary fa…
 2  2020      1 March 2.02e13        1   1553.      2 2.02e13  1553. Primary fa…
 3  2020      2 March 2.02e13        1    990.      1 2.02e13   990. Primary fa…
 4  2020      2 March 2.02e13        1    990.      2 2.02e13   990. Primary fa…
 5  2020      3 March 2.02e13        1   1505.      1 2.02e13  1505. Nonfamily …
 6  2020      4 March 2.02e13        1   1431.      1 2.02e13  1431. Primary fa…
 7  2020      4 March 2.02e13        1   1431.      2 2.02e13  1197. Primary fa…
 8  2020      5 March 2.02e13        1   1133.      1 2.02e13  1133. Primary fa…
 9  2020      5 March 2.02e13        1   1133.      2 2.02e13  1133. Primary fa…
10  2020      5 March 2.02e13        1   1133.      3 2.02e13  1322. Primary fa…
# ℹ 157,949 more rows
# ℹ 8 more variables: ftotval <dbl>, inctot <dbl>, incwage <dbl>, offpov <chr>,
#   offpovuniv <chr>, offtotval <dbl>, offcutoff <dbl>, inctot_adjusted <dbl>

Variables are edited by including an existing column name, like inctot, to the left of = in mutate().

# adjust income because of underreporting
mutate(.data = asec, inctot = inctot * 1.1)

# A tibble: 157,959 × 17
    year serial month   cpsid asecflag asecwth pernum  cpsidp asecwt ftype      
   <dbl>  <dbl> <chr>   <dbl>    <dbl>   <dbl>  <dbl>   <dbl>  <dbl> <chr>      
 1  2020      1 March 2.02e13        1   1553.      1 2.02e13  1553. Primary fa…
 2  2020      1 March 2.02e13        1   1553.      2 2.02e13  1553. Primary fa…
 3  2020      2 March 2.02e13        1    990.      1 2.02e13   990. Primary fa…
 4  2020      2 March 2.02e13        1    990.      2 2.02e13   990. Primary fa…
 5  2020      3 March 2.02e13        1   1505.      1 2.02e13  1505. Nonfamily …
 6  2020      4 March 2.02e13        1   1431.      1 2.02e13  1431. Primary fa…
 7  2020      4 March 2.02e13        1   1431.      2 2.02e13  1197. Primary fa…
 8  2020      5 March 2.02e13        1   1133.      1 2.02e13  1133. Primary fa…
 9  2020      5 March 2.02e13        1   1133.      2 2.02e13  1133. Primary fa…
10  2020      5 March 2.02e13        1   1133.      3 2.02e13  1322. Primary fa…
# ℹ 157,949 more rows
# ℹ 7 more variables: ftotval <dbl>, inctot <dbl>, incwage <dbl>, offpov <chr>,
#   offpovuniv <chr>, offtotval <dbl>, offcutoff <dbl>
…
# new way
asec |>
  mutate(inctot_adjusted = inctot * 1.1)

See the power:

new_asec <- asec |>
  filter(pernum == 1) |>
  select(year, month, pernum, inctot) |>
  mutate(inctot_adjusted = inctot * 1.1) |>
  select(-inctot)

new_asec

# A tibble: 60,460 × 4
    year month pernum inctot_adjusted
   <dbl> <chr>  <dbl>           <dbl>
 1  2020 March      1          57750 
 2  2020 March      1          48400 
 3  2020 March      1          44002.
 4  2020 March      1              0 
 5  2020 March      1            671 
 6  2020 March      1          19279.
 7  2020 March      1          12349.
 8  2020 March      1          21589.
 9  2020 March      1          47306.
10  2020 March      1          10949.
# ℹ 60,450 more rows
…
asec |>
  group_by(pernum, offpov) |>
  summarize(
    n = n(),
    mean_ftotval = mean(ftotval), 
    mean_inctot = mean(inctot)
  ) |>
  arrange(offpov) |>
  ungroup()

`summarise()` has grouped output by 'pernum'. You can override using the
`.groups` argument.

# A tibble: 40 × 5
   pernum offpov                 n mean_ftotval mean_inctot
    <dbl> <chr>              <int>        <dbl>       <dbl>
 1      1 Above Poverty Line 53872      104451.      63642.
 2      2 Above Poverty Line 40978      118691.   59082162.
 3      3 Above Poverty Line 23052      129891.  463440562.
 4      4 Above Poverty Line 14076      135039.  631720097.
 5      5 Above Poverty Line  5805      123937.  688206447.
 6      6 Above Poverty Line  2118      105867.  683199297.
 7      7 Above Poverty Line   724       96817.  697520661.
 8      8 Above Poverty Line   269       90328.  672870019.
 9      9 Above Poverty Line   114       70438.  622815186.
10     10 Above Poverty Line    57       71483.  666678408.
# ℹ 30 more rows
…
count(x = asec, pernum, offpov)

# A tibble: 40 × 3
   pernum offpov                 n
    <dbl> <chr>              <int>
 1      1 Above Poverty Line 53872
 2      1 Below Poverty Line  6588
 3      2 Above Poverty Line 40978
 4      2 Below Poverty Line  4156
 5      2 NIU                   17
 6      3 Above Poverty Line 23052
 7      3 Below Poverty Line  2527
 8      3 NIU                   71
 9      4 Above Poverty Line 14076
10      4 Below Poverty Line  1648
# ℹ 30 more rows
…
