Data Science for Public Policy - 1 Advanced Data Cleaning
…
After

read_csv(here("data", "raw", "important-data.csv"))

1.2.2 library(readxl)

We will focus on reading data from Excel workbooks. Excel is a bad tool with bad design that has led to many analytical errors. Unfortunately, it’s a dominant tool for storing data and often enters the data science workflow.

library(readxl) is the premier package for reading data from .xls and .xlsx files. read_excel(), which works like read_csv(), loads data from .xls and .xlsx files. Consider data from the Urban Institute’s Debt in America feature accessed through the Urban Institute Data Catalog.

library(readxl)

read_excel(here("data", "state_dia_delinquency_ 7 Jun 2022.xlsx"))

# A tibble: 51 × 28
   fips  state_name          state Share with Any Debt …¹ Share with Any Debt …²
   <chr> <chr>               <chr> <chr>                  <chr>                 
 1 01    Alabama             AL    .3372881               .5016544              
 2 02    Alaska              AK    .1672429               .221573               
 3 04    Arizona             AZ    .2666938               .3900013              
 4 05    Arkansas            AR    .3465793               .5426918              
 5 06    California          CA    .2087713               .2462195              
 6 08    Colorado            CO    .213803                .3554938              
 7 09    Connecticut         CT    .2194708               .3829038              
 8 10    Delaware            DE    .2866829               .469117               
 9 11    District of Columb… DC    .2232908               .3485817              
10 12    Florida             FL    .2893825               .3439322              
# ℹ 41 more rows
# ℹ abbreviated names: ¹​`Share with Any Debt in Collections, All`,
#   ²​`Share with Any Debt in Collections, Communities of Color`
# ℹ 23 more variables:
#   `Share with Any Debt in Collections, Majority White Communities` <chr>,
#   `Median Debt in Collections, All` <chr>,
#   `Median Debt in Collections, Communities of Color` <chr>, …
…
Rows: 196537 Columns: 4
── Column specification ────────────────────────────────────────────────────────
Delimiter: ","
chr  (2): text, president
dbl  (1): executive_order_number
date (1): signing_date

ℹ Use `spec()` to retrieve the full column specification for this data.
ℹ Specify the column types or set `show_col_types = FALSE` to quiet this message.

eos

# A tibble: 1,126 × 2
   executive_order_number text                                                  
                    <dbl> <chr>                                                 
 1                  12890 "Executive Order 12890 of December 30, 1993 Amendment…
 2                  12944 "Executive Order 12944 of December 28, 1994 Adjustmen…
 3                  12945 "Executive Order 12945 of January 20, 1995 Amendment …
 4                  12946 "Executive Order 12946 of January 20, 1995 President'…
 5                  12947 "Executive Order 12947 of January 23, 1995 Prohibitin…
 6                  12948 "Executive Order 12948 of January 30, 1995 Amendment …
 7                  12949 "Executive Order 12949 of February 9, 1995 Foreign In…
 8                  12950 "Executive Order 12950 of February 22, 1995 Establish…
 9                  12951 "Executive Order 12951 of February 22, 1995 Release o…
10                  12952 "Executive Order 12952 of February 24, 1995 Amendment…
# ℹ 1,116 more rows
…
