Data Science for Public Policy - 5 Exploratory Data Analysis
…
ℹ Use `spec()` to retrieve the full column specification for this data.
ℹ Specify the column types or set `show_col_types = FALSE` to quiet this message.

Creating datetime columns enables the use of a number of different operations, such as filtering based on date:

acled_2022 |>
  filter(event_date > "2022-06-01")

# A tibble: 6,859 × 5
   event_date region          country event_type             sub_event_type     
   <date>     <chr>           <chr>   <chr>                  <chr>              
 1 2022-06-04 Northern Africa Algeria Protests               Peaceful protest   
 2 2022-06-05 Northern Africa Algeria Protests               Peaceful protest   
 3 2022-06-05 Northern Africa Algeria Protests               Peaceful protest   
 4 2022-06-08 Northern Africa Algeria Protests               Peaceful protest   
 5 2022-06-09 Northern Africa Algeria Protests               Peaceful protest   
 6 2022-06-09 Northern Africa Algeria Protests               Peaceful protest   
 7 2022-06-11 Northern Africa Algeria Protests               Peaceful protest   
 8 2022-06-15 Northern Africa Algeria Strategic developments Looting/property d…
 9 2022-06-18 Northern Africa Algeria Protests               Protest with inter…
10 2022-06-19 Northern Africa Algeria Protests               Peaceful protest   
# ℹ 6,849 more rows

Or calculating durations:

acled_2022 |>
  #number of days into 2022 event occurred
  mutate(days_into_2022 = event_date - ymd("2022-01-01")) 

# A tibble: 22,101 × 6
   event_date region          country event_type sub_event_type   days_into_2022
   <date>     <chr>           <chr>   <chr>      <chr>            <drtn>        
 1 2022-01-03 Northern Africa Algeria Protests   Peaceful protest 2 days        
 2 2022-01-03 Northern Africa Algeria Protests   Peaceful protest 2 days        
 3 2022-01-04 Northern Africa Algeria Protests   Peaceful protest 3 days        
 4 2022-01-05 Northern Africa Algeria Protests   Peaceful protest 4 days        
 5 2022-01-05 Northern Africa Algeria Protests   Peaceful protest 4 days        
 6 2022-01-05 Northern Africa Algeria Protests   Peaceful protest 4 days        
 7 2022-01-05 Northern Africa Algeria Protests   Peaceful protest 4 days        
 8 2022-01-05 Northern Africa Algeria Protests   Peaceful protest 4 days        
 9 2022-01-06 Northern Africa Algeria Protests   Peaceful protest 5 days        
10 2022-01-06 Northern Africa Algeria Protests   Peaceful protest 5 days        
# ℹ 22,091 more rows

Or extracting components of dates:

acled_2022 |>
  mutate(event_month = month(event_date)) #month event occurred

# A tibble: 22,101 × 6
   event_date region          country event_type sub_event_type   event_month
   <date>     <chr>           <chr>   <chr>      <chr>                  <dbl>
 1 2022-01-03 Northern Africa Algeria Protests   Peaceful protest           1
 2 2022-01-03 Northern Africa Algeria Protests   Peaceful protest           1
 3 2022-01-04 Northern Africa Algeria Protests   Peaceful protest           1
 4 2022-01-05 Northern Africa Algeria Protests   Peaceful protest           1
 5 2022-01-05 Northern Africa Algeria Protests   Peaceful protest           1
 6 2022-01-05 Northern Africa Algeria Protests   Peaceful protest           1
 7 2022-01-05 Northern Africa Algeria Protests   Peaceful protest           1
 8 2022-01-05 Northern Africa Algeria Protests   Peaceful protest           1
 9 2022-01-06 Northern Africa Algeria Protests   Peaceful protest           1
10 2022-01-06 Northern Africa Algeria Protests   Peaceful protest           1
# ℹ 22,091 more rows
…
