Data Science for Public Policy Part II - 1 Mixture Distributions and Mixture Models
…
mnist_clust <- flexmix(
  formula = mnist_full ~ 1, 
  k = 7, 
  model = FLXMCmvbinary(), 
  control = list(iter.max = 200, minprior = 0)
)

The MNIST data are already labelled, so we can compare our assignments to the labels if we convert the “soft assignments” to “hard assignments”. Note that most applications won’t have labels.

mnist |>
  bind_cols(cluster = mnist_clust@cluster) |>
  count(label, cluster) |>
  arrange(cluster)

# A tibble: 69 × 3
   label cluster     n
   <dbl>   <int> <int>
 1     0       1     1
 2     1       1  6219
 3     2       1   157
 4     3       1   275
 5     4       1    72
 6     5       1    63
 7     6       1   262
 8     7       1   198
 9     8       1   365
10     9       1   123
# ℹ 59 more rows
…
