Data Science for Public Policy Part II - 1 Microsimulation
…
ℹ Use `spec()` to retrieve the full column specification for this data.
ℹ Specify the column types or set `show_col_types = FALSE` to quiet this message.

proposal1 <- asec |>
  mutate(
    benefit = map2_dbl(
      .x = nchild, 
      .y = ftotval, 
      .f = new_tax_credit
    )
  )

proposal1

# A tibble: 59,148 × 6
   serial  year asecwt nchild ftotval benefit
    <dbl> <dbl>  <dbl>  <dbl>   <dbl>   <dbl>
 1      1  2022  2553.      0   44220       0
 2      5  2022  1587.      0   82752       0
 3      6  2022  1493.      0   60001       0
 4      9  2022   898.      3  123814       0
 5     10  2022  2031.      0   31184       0
 6     11  2022  1987.      0       0       0
 7     12  2022  1978.      0   19783       0
 8     13  2022  1098.      2   72370       0
 9     15  2022  2334.      0   44000       0
10     17  2022  1978.      0     400       0
# ℹ 59,138 more rows
…
