Data Science for Public Policy - 11 Web Application Programming Interfaces (Web APIs)
…
# create a character matrix from the JSON
pop_matrix <- fromJSON(pop_json)

# turn the body of the character matrix into a tibble
pop_data <- as_tibble(pop_matrix[2:nrow(pop_matrix), ],
                      .name_repair = "minimal")

# add variable names to the tibble
names(pop_data) <- pop_matrix[1, ]

pop_data

# A tibble: 52 × 4
   STNAME               POP      DATE_ state
   <chr>                <chr>    <chr> <chr>
 1 Alabama              4849377  7     01   
 2 Alaska               736732   7     02   
 3 Arizona              6731484  7     04   
 4 Arkansas             2966369  7     05   
 5 California           38802500 7     06   
 6 Colorado             5355866  7     08   
 7 Connecticut          3596677  7     09   
 8 Delaware             935614   7     10   
 9 District of Columbia 658893   7     11   
10 Florida              19893297 7     12   
# ℹ 42 more rows
…
This could be all states, districts, and territories. It’s only Alabama and Alaska for brevity.

fips <- c("01", "02")

11.13.3 Iterate the functions

map_df() iterates get_acs() along the vector of state FIPs and returns a tibble.

# load credentials
credential <- Sys.getenv("census_api_key")

# iterate the function over Alabama and Alaska
map_df(fips, .f = get_acs, credential = credential)

# A tibble: 1,348 × 5
   B01001_002E B01001_026E state county tract 
   <chr>       <chr>       <chr> <chr>  <chr> 
 1 2409        2800        01    097    006501
 2 5961        6372        01    097    006502
 3 3098        2888        01    097    006701
 4 1837        1993        01    097    006702
 5 1410        1503        01    097    007201
 6 1538        1136        01    097    007202
 7 1586        1311        01    097    007400
 8 680         705         01    097    007500
 9 981         997         01    097    007600
10 537         691         01    097    007700
# ℹ 1,338 more rows
…
library(censusapi)

Warning: package 'censusapi' was built under R version 4.3.3

getCensus(
  name = "acs/acs5",
  vars = c("B01001_002E", "B01001_026E"), 
  region = "tract:*",
  regionin = "state:01",
  vintage = 2018,
  key = credential
) %>%
  as_tibble()

# A tibble: 1,181 × 5
   state county tract  B01001_002E B01001_026E
   <chr> <chr>  <chr>        <int>       <int>
 1 01    097    006501        2409        2800
 2 01    097    006502        5961        6372
 3 01    097    006701        3098        2888
 4 01    097    006702        1837        1993
 5 01    097    007201        1410        1503
 6 01    097    007202        1538        1136
 7 01    097    007400        1586        1311
 8 01    097    007500         680         705
 9 01    097    007600         981         997
10 01    097    007700         537         691
# ℹ 1,171 more rows
…
