Data Science for Public Policy - 4 Web Scraping
…
html_text2() retrieves text from HTML elements.

html_attrs() retrieves HTML attributes from HTML elements. html_attrs() can return multiple attributes while html_attr() always returns one attribute.

tibble(
  text = election_page |>
    html_elements(css = "p a") |>
    html_text2(),
  url = election_page |>
    html_elements(css = "p a") |>
    html_attr(name = "href")
)

# A tibble: 355 × 2
   text                  url                                                    
   <chr>                 <chr>                                                  
 1 Barack Obama          /web/20230814004444/https://en.wikipedia.org/wiki/Bara…
 2 Democratic            /web/20230814004444/https://en.wikipedia.org/wiki/Demo…
 3 Barack Obama          /web/20230814004444/https://en.wikipedia.org/wiki/Bara…
 4 Democratic            /web/20230814004444/https://en.wikipedia.org/wiki/Demo…
 5 presidential election /web/20230814004444/https://en.wikipedia.org/wiki/Unit…
 6 Democratic            /web/20230814004444/https://en.wikipedia.org/wiki/Demo…
 7 President             /web/20230814004444/https://en.wikipedia.org/wiki/Pres…
 8 Barack Obama          /web/20230814004444/https://en.wikipedia.org/wiki/Bara…
 9 running mate          /web/20230814004444/https://en.wikipedia.org/wiki/Runn…
10 Vice President        /web/20230814004444/https://en.wikipedia.org/wiki/Vice…
# ℹ 345 more rows
…
