Data Science for Public Policy - 13 Simulation and Sampling
…
From these two random variables, we can calculate the arrival times, departure times, and wait times for each customer.

The arrival times are the cumulative sum of the interarrival times.

The wait times are zero if a person arrives after the person before them and the difference between the prior person’s departure and the current person’s arrival otherwise.

The departure time is arrival time plus the wait time plus the service time.

set.seed(19920401)
queue <- generate_queue(t = 100, lambda = 1, mu = 1)

queue

# A tibble: 100 × 5
   interarrival_time arrival_time service_time wait_time departure_time
               <dbl>        <dbl>        <dbl>     <dbl>          <dbl>
 1             0.467        0.467       5.80        0              6.27
 2             1.97         2.43        0.0892      3.83           6.36
 3             2.70         5.13        1.26        1.22           7.61
 4             0.335        5.47        4.85        2.14          12.5 
 5             0.372        5.84        1.89        6.62          14.3 
 6             1.72         7.56        0.507       6.78          14.9 
 7             2.28         9.84        0.932       5.01          15.8 
 8             0.339       10.2         1.18        5.61          17.0 
 9             2.54        12.7         1.42        4.25          18.4 
10             0.572       13.3         0.157       5.10          18.5 
# ℹ 90 more rows
…
