Data Science for Public Policy - 10 Microsimulation
…
ℹ Use `spec()` to retrieve the full column specification for this data.
ℹ Specify the column types or set `show_col_types = FALSE` to quiet this message.

proposal1 <- asec |>
  mutate(
    benefit = map2_dbl(
      .x = nchild, 
      .y = ftotval, 
      .f = new_tax_credit
    )
  )

arrange(proposal1, desc(benefit))

# A tibble: 59,148 × 6
   serial  year asecwt nchild ftotval benefit
    <dbl> <dbl>  <dbl>  <dbl>   <dbl>   <dbl>
 1    118  2022   865.      4    1552    6000
 2    159  2022  1098.      3       1    6000
 3    405  2022   933.      3   16478    6000
 4   1914  2022   614.      4    9300    6000
 5   3269  2022   391.      3    5400    6000
 6   4632  2022  2624.      3       0    6000
 7   4692  2022  1746.      3   15500    6000
 8   4812  2022  1468.      4   12000    6000
 9   5494  2022   662.      3   18000    6000
10   5596  2022  1708.      3   10002    6000
# ℹ 59,138 more rows
…
