Data Science for Public Policy - 18 Predictive Modeling Concepts
…
We use grid_regular() to specify a hyperparameter tuning grid for potential values of the cost-complexity parameter, tree depth parameter, and minimum n.

rpart_grid <- grid_regular(
  cost_complexity(range = c(-5, -1)), 
  tree_depth(range = c(3, 15)), 
  min_n(),
  levels = 10
)

rpart_grid

# A tibble: 1,000 × 3
   cost_complexity tree_depth min_n
             <dbl>      <int> <int>
 1       0.00001            3     2
 2       0.0000278          3     2
 3       0.0000774          3     2
 4       0.000215           3     2
 5       0.000599           3     2
 6       0.00167            3     2
 7       0.00464            3     2
 8       0.0129             3     2
 9       0.0359             3     2
10       0.1                3     2
# ℹ 990 more rows
…
5. Test and Choose the “Best” Model

rpart_res <-
  rpart_workflow |>
  tune_grid(resamples = chicago_folds,
            grid = rpart_grid,
            metrics = metric_set(rmse))

rpart_res |>
  collect_metrics()

# A tibble: 1,000 × 9
   cost_complexity tree_depth min_n .metric .estimator  mean     n std_err
             <dbl>      <int> <int> <chr>   <chr>      <dbl> <int>   <dbl>
 1       0.00001            3     2 rmse    standard    2.44    10  0.0414
 2       0.0000278          3     2 rmse    standard    2.44    10  0.0414
 3       0.0000774          3     2 rmse    standard    2.44    10  0.0414
 4       0.000215           3     2 rmse    standard    2.44    10  0.0414
 5       0.000599           3     2 rmse    standard    2.44    10  0.0414
 6       0.00167            3     2 rmse    standard    2.45    10  0.0418
 7       0.00464            3     2 rmse    standard    2.47    10  0.0456
 8       0.0129             3     2 rmse    standard    2.67    10  0.0392
 9       0.0359             3     2 rmse    standard    2.67    10  0.0392
10       0.1                3     2 rmse    standard    3.02    10  0.0383
# ℹ 990 more rows
# ℹ 1 more variable: .config <chr>
…
