Data Science for Public Policy - 19 Classification
…
Step 4. Evaluate a Model

# predict the predicted class and the predicted probability of each class
predictions <- bind_cols(
  penguins_small_test,
  predict(object = cart_fit, new_data = penguins_small_test),
  predict(object = cart_fit, new_data = penguins_small_test, type = "prob")
)

select(predictions, species, starts_with(".pred"))

# A tibble: 53 × 4
   species .pred_class .pred_Adelie .pred_Gentoo
   <fct>   <fct>              <dbl>        <dbl>
 1 Adelie  Adelie                 1            0
 2 Adelie  Adelie                 1            0
 3 Adelie  Adelie                 1            0
 4 Adelie  Adelie                 1            0
 5 Adelie  Adelie                 1            0
 6 Adelie  Adelie                 1            0
 7 Adelie  Adelie                 1            0
 8 Adelie  Adelie                 1            0
 9 Adelie  Adelie                 1            0
10 Adelie  Adelie                 1            0
# ℹ 43 more rows
…
