Data Science for Public Policy - 22 Mixture Distributions and Mixture Modeling
…
Figure 22.2: Uncertainty plot from a GMM

We can also summarize the model with library(broom).

library(broom)

augment(gmm2_geyser)

# A tibble: 272 × 4
   eruptions waiting .class .uncertainty
       <dbl>   <dbl> <fct>         <dbl>
 1      3.6       79 1          2.82e- 2
 2      1.8       54 2          8.60e-13
 3      3.33      74 1          3.26e- 3
 4      2.28      62 2          3.14e- 7
 5      4.53      85 3          1.17e- 2
 6      2.88      55 2          3.09e- 3
 7      4.7       88 3          2.99e- 3
 8      3.6       85 1          2.39e- 2
 9      1.95      51 2          5.23e-12
10      4.35      85 3          5.52e- 2
# ℹ 262 more rows
…
