Data Science for Public Policy - 24 Text Analysis
…
Key challenge: text contains a lot of useful information but its structure does not match how we have done data analysis up to this point.

24.5 Vocabulary & Tidy Data

library(gutenbergr)

fed_papers <- gutenberg_download(
  gutenberg_id = 1404, 
  mirror = "http://mirror.csclub.uwaterloo.ca/gutenberg"
)

fed_papers

# A tibble: 58,077 × 2
   gutenberg_id text                                                
          <int> <chr>                                               
 1         1404 "THE FEDERALIST PAPERS"                             
 2         1404 "THE FEDERALIST PAPERS"                             
 3         1404 "THE FEDERALIST PAPERS"                             
 4         1404 ""                                                  
 5         1404 ""                                                  
 6         1404 ""                                                  
 7         1404 "By Alexander Hamilton, John Jay, and James Madison"
 8         1404 "By Alexander Hamilton, John Jay, and James Madison"
 9         1404 "By Alexander Hamilton, John Jay, and James Madison"
10         1404 ""                                                  
# ℹ 58,067 more rows
…
Token

A meaningful unit of text. Tokens include works, phrases, and sentences.

Tokenization

Process of splitting a larger unit of text into tokens. For example, “data science is useful” can be “data”, “science”, “is”, “useful”.

# tidytext can tokenize text with unnest_tokens()
tidy_fed_paper1 <- fed_paper1 |>
  unnest_tokens(output = word, input = text)

tidy_fed_paper1

# A tibble: 1,297 × 2
   gutenberg_id word     
          <int> <chr>    
 1         1404 by       
 2         1404 alexander
 3         1404 hamilton 
 4         1404 john     
 5         1404 jay      
 6         1404 and      
 7         1404 james    
 8         1404 madison  
 9         1404 by       
10         1404 alexander
# ℹ 1,287 more rows

Stemming

A method of removing the end, and keeping only the root, of a word. Stemming is unaware of the context or use of the word. Example

# SnowballC has a stemmer that works well with tidytext
library(SnowballC)

tidy_fed_paper1 |>
  mutate(stem = wordStem(word)) |>
  filter(word != stem)

# A tibble: 471 × 3
   gutenberg_id word         stem     
          <int> <chr>        <chr>    
 1         1404 alexander    alexand  
 2         1404 jay          jai      
 3         1404 james        jame     
 4         1404 alexander    alexand  
 5         1404 jay          jai      
 6         1404 james        jame     
 7         1404 general      gener    
 8         1404 introduction introduct
 9         1404 general      gener    
10         1404 introduction introduct
# ℹ 461 more rows

Lemmatizing

A method of returning the base of a word. Lemmatization considers the context of a word. Example Lemmatizing requires natural language processing, so this requires Stanford CoreNLP or the Python package spaCy, which can be accessed in R via library(spacyr).

Stop words

Extremely common words that are often not useful for text analysis. library(tidytext) contains stop words from the onix, SMART, and snowball lexicons.

stop_words

# A tibble: 1,149 × 2
   word        lexicon
   <chr>       <chr>  
 1 a           SMART  
 2 a's         SMART  
 3 able        SMART  
 4 about       SMART  
 5 above       SMART  
 6 according   SMART  
 7 accordingly SMART  
 8 across      SMART  
 9 actually    SMART  
10 after       SMART  
# ℹ 1,139 more rows

Tidy text

A table with one token per row.” ~ Text Mining with R

Text can also be stored as a string, a corpus, and a document-term matrix.

# tidy text format
tidy_fed_paper1

# A tibble: 1,297 × 2
   gutenberg_id word     
          <int> <chr>    
 1         1404 by       
 2         1404 alexander
 3         1404 hamilton 
 4         1404 john     
 5         1404 jay      
 6         1404 and      
 7         1404 james    
 8         1404 madison  
 9         1404 by       
10         1404 alexander
# ℹ 1,287 more rows
…
# filter to main authors
tidy_fed_papers1 <- tidy_fed_papers |>
  filter(author %in% c("hamilton", "madison"))

# remove stop words and stem the words
tidy_fed_papers1 <- tidy_fed_papers1 |>
  anti_join(stop_words, by = "word") |>
  mutate(word = wordStem(word))

# count Hamilton's most-frequent words
tidy_fed_papers1 |>
  filter(author == "hamilton") |>
  count(word, sort = TRUE)

# A tibble: 2,728 × 2
   word            n
   <chr>       <int>
 1 govern        648
 2 nation        510
 3 peopl         363
 4 power         360
 5 union         315
 6 time          234
 7 author        198
 8 danger        192
 9 confederaci   186
10 countri       183
# ℹ 2,718 more rows

# count Madison's most-frequent words
tidy_fed_papers1 |>
  filter(author == "madison") |>
  count(word, sort = TRUE)

# A tibble: 1,592 × 2
   word            n
   <chr>       <int>
 1 govern        174
 2 nation        153
 3 union         108
 4 power          96
 5 war            81
 6 confederaci    69
 7 peopl          69
 8 form           63
 9 object         63
10 time           63
# ℹ 1,582 more rows
…
