Data Science for Public Policy - 25 Text Modeling
…
# one row per coefficient
tidy(cars_lm)

# A tibble: 2 × 5
  term        estimate std.error statistic  p.value
  <chr>          <dbl>     <dbl>     <dbl>    <dbl>
1 (Intercept)   -17.6      6.76      -2.60 1.23e- 2
2 speed           3.93     0.416      9.46 1.49e-12

# one row per observation in the modeling data
augment(cars_lm)

# A tibble: 50 × 8
    dist speed .fitted .resid   .hat .sigma  .cooksd .std.resid
   <dbl> <dbl>   <dbl>  <dbl>  <dbl>  <dbl>    <dbl>      <dbl>
 1     2     4   -1.85   3.85 0.115    15.5 0.00459       0.266
 2    10     4   -1.85  11.8  0.115    15.4 0.0435        0.819
 3     4     7    9.95  -5.95 0.0715   15.5 0.00620      -0.401
 4    22     7    9.95  12.1  0.0715   15.4 0.0255        0.813
 5    16     8   13.9    2.12 0.0600   15.5 0.000645      0.142
 6    10     9   17.8   -7.81 0.0499   15.5 0.00713      -0.521
 7    18    10   21.7   -3.74 0.0413   15.5 0.00133      -0.249
 8    26    10   21.7    4.26 0.0413   15.5 0.00172       0.283
 9    34    10   21.7   12.3  0.0413   15.4 0.0143        0.814
10    17    11   25.7   -8.68 0.0341   15.5 0.00582      -0.574
# ℹ 40 more rows
…
Word topic probabilities

With LDA, each topic is a mixture of words. The model returns estimated parameters called \(\beta\). A \(\beta\) represents the estimated probability of a specific word being generated from a particular topic. We can extract \(\beta\) from the output of LDA() with tidy().

lda_beta <- tidy(eos_lda, matrix = "beta")

top_beta <- lda_beta |>
  group_by(topic) |>
  slice_max(beta, n = 12) |>
  ungroup() |>
  arrange(desc(beta))

top_beta

# A tibble: 264 × 3
   topic term       beta
   <int> <chr>     <dbl>
 1     2 schedul  0.0863
 2     4 inform   0.0716
 3     6 committe 0.0630
 4     6 amend    0.0540
 5     2 pai      0.0488
 6    11 contract 0.0449
 7    17 agenc    0.0441
 8     5 agenc    0.0427
 9    20 agenc    0.0426
10    13 educ     0.0422
# ℹ 254 more rows
…
Document-topic probabilities

With LDA, each document is a mixture of topics The model returns estimated parameters called \(\gamma\). A \(\gamma\) represents the estimated proportion of words from a specific document that come from a particular topic.

lda_gamma <- tidy(eos_lda, matrix = "gamma")

top_gamma <- lda_gamma |>
  group_by(topic) |>
  slice_max(gamma, n = 12) |>
  ungroup() |>
  arrange(desc(gamma))

top_gamma

# A tibble: 266 × 3
   document topic gamma
   <chr>    <int> <dbl>
 1 13086       14 1.000
 2 13262       14 1.000
 3 13292        4 1.000
 4 12958        4 1.000
 5 13693       17 1.000
 6 13123       17 1.000
 7 13780       18 1.000
 8 13951       21 1.000
 9 13178       12 1.000
10 13645       10 1.000
# ℹ 256 more rows
…
step_tfidf() Create multiple variables with TF-IDF.

step_ngram() Create a token variable with n-grams.

step_stem() Stem tokens.

step_lemma() Lemmatizes tokens with library(spacyr).

step_stopwords() Remove stopwords.

25.4.1 Example 05

Consider the Federalist Papers data set we used in the earlier class notes. After loading the data, the data are in one-row-per-line format. This is the format that we tidied with unnest_tokens().

# A tibble: 18,265 × 3
   text                                                      paper_number author
   <chr>                                                            <int> <chr> 
 1 "THE FEDERALIST PAPERS THE FEDERALIST PAPERS THE FEDERAL…            1 hamil…
 2 " 1 FEDERALIST No"                                                   2 jay   
 3 " 1 FEDERALIST No"                                                   3 jay   
 4 " 1    General Introduction General Introduction General…            3 jay   
 5 " Saturday, October 27, 1787 For the Independent Journal"            3 jay   
 6 " Saturday, October 27, 1787 For the Independent Journal"            3 jay   
 7 " Saturday, October 27, 1787       HAMILTON HAMILTON HAM…            3 jay   
 8 " The subject speaks its Constitution for the United Sta…            3 jay   
 9 " The subject speaks its Constitution for the United Sta…            3 jay   
10 " The subject speaks its own importance; comprehending i…            3 jay   
# ℹ 18,255 more rows
…
We can use nest() and paste() to transform the data into this format.

fed_papers <- fed_papers |>
  group_by(paper_number) |>
  nest(text = text) |>
  # paste individual lines into one row per document
  mutate(text = map_chr(.x = text, ~paste(.x[[1]], collapse = " "))) |>
  ungroup() |>
  # remove white spaces
  mutate(text = str_squish(str_to_lower(text)))

fed_papers

# A tibble: 255 × 3
   paper_number author   text                                                   
          <int> <chr>    <chr>                                                  
 1            1 hamilton "the federalist papers the federalist papers the feder…
 2            2 jay      "1 federalist no"                                      
 3            3 jay      "1 federalist no 1 general introduction general introd…
 4            4 jay      "federalist no"                                        
 5            5 jay      "2 federalist no"                                      
 6            6 hamilton "2 federalist no 2 concerning dangers from foreign for…
 7            7 hamilton "\" publius publius publius federalist no"             
 8            8 hamilton "3 federalist no"                                      
 9            9 hamilton "3 federalist no 3 the same subject continued (concern…
10           10 madison  "publius publius publius federalist no"                
# ℹ 245 more rows
…
recipe( ~ text, data = fed_papers) |>
  # tokenize the text
  step_tokenize(text) |>
  # remove stop works
  step_stopwords(text) |>
  # stem words
  step_stem(text) |>
  # remove infrequent tokens
  step_tokenfilter(text, max_tokens = 10) |>
  # perform TF-IDF
  step_tfidf(text) |>
  prep() |>
  bake(new_data = NULL)

# A tibble: 255 × 10
   tfidf_text_can tfidf_text_constitut tfidf_text_govern tfidf_text_mai
            <dbl>                <dbl>             <dbl>          <dbl>
 1         0                     0                 0             0     
 2         0                     0                 0             0     
 3         0.0751                0.250             0.215         0.265 
 4         0                     0                 0             0     
 5         0                     0                 0             0     
 6         0                     0                 0.198         0.0886
 7         0                     0                 0             0     
 8         0                     0                 0             0     
 9         0.0463                0                 0.295         0.0891
10         0                     0                 0             0     
# ℹ 245 more rows
# ℹ 6 more variables: tfidf_text_must <dbl>, tfidf_text_nation <dbl>,
#   tfidf_text_on <dbl>, tfidf_text_peopl <dbl>, tfidf_text_power <dbl>,
#   tfidf_text_state <dbl>
…
lasso_grid <- grid_regular(penalty(range = c(-5, 0)), levels = 10)

lasso_cv <-
  tune_grid(
    lasso_wf,
    eos_folds,
    grid = lasso_grid
  )

Unpack the estimated models.

lasso_cv |>
  collect_metrics()

# A tibble: 30 × 7
     penalty .metric     .estimator  mean     n std_err .config              
       <dbl> <chr>       <chr>      <dbl> <int>   <dbl> <chr>                
 1 0.00001   accuracy    binary     0.700    10  0.0160 Preprocessor1_Model01
 2 0.00001   brier_class binary     0.239    10  0.0127 Preprocessor1_Model01
 3 0.00001   roc_auc     binary     0.759    10  0.0178 Preprocessor1_Model01
 4 0.0000359 accuracy    binary     0.700    10  0.0160 Preprocessor1_Model02
 5 0.0000359 brier_class binary     0.239    10  0.0127 Preprocessor1_Model02
 6 0.0000359 roc_auc     binary     0.759    10  0.0178 Preprocessor1_Model02
 7 0.000129  accuracy    binary     0.700    10  0.0160 Preprocessor1_Model03
 8 0.000129  brier_class binary     0.239    10  0.0127 Preprocessor1_Model03
 9 0.000129  roc_auc     binary     0.759    10  0.0178 Preprocessor1_Model03
10 0.000464  accuracy    binary     0.700    10  0.0160 Preprocessor1_Model04
# ℹ 20 more rows
…
Fit the best model on all of the training data and look at the coefficients.

lasso_wf <- finalize_workflow(x = lasso_wf, parameters = select_best(lasso_cv, metric = "roc_auc"))

lasso_fit <- last_fit(lasso_wf, split = eos_split)

lasso_fit |>
  extract_fit_parsnip() |>
  tidy() |>
  arrange(desc(abs(estimate))) |>
  print(n = 20)

# A tibble: 1,001 × 3
   term                estimate penalty
   <chr>                  <dbl>   <dbl>
 1 tfidf_text_bill        186.   0.0215
 2 tfidf_text_wide        -82.7  0.0215
 3 tfidf_text_avail        67.1  0.0215
 4 tfidf_text_page         65.8  0.0215
 5 tfidf_text_america'     64.6  0.0215
 6 tfidf_text_prosecut     58.2  0.0215
 7 tfidf_text_pose         56.2  0.0215
 8 tfidf_text_b            53.8  0.0215
 9 tfidf_text_earli       -53.7  0.0215
10 tfidf_text_solicit     -43.7  0.0215
11 tfidf_text_relev       -41.4  0.0215
12 tfidf_text_releas      -40.9  0.0215
13 tfidf_text_month       -33.6  0.0215
14 tfidf_text_j            33.3  0.0215
15 tfidf_text_iii          32.0  0.0215
16 tfidf_text_propos       30.9  0.0215
17 tfidf_text_on           27.0  0.0215
18 tfidf_text_deliveri     26.5  0.0215
19 tfidf_text_expertis    -25.1  0.0215
20 tfidf_text_issuanc      25.0  0.0215
# ℹ 981 more rows
…
rf_cv <-
  tune_grid(
    rf_wf,
    eos_folds,
    grid = rf_grid
  )

Unpack the estimated models.

rf_cv |>
  collect_metrics()

# A tibble: 75 × 8
    mtry min_n .metric     .estimator  mean     n std_err .config              
   <int> <int> <chr>       <chr>      <dbl> <int>   <dbl> <chr>                
 1    10     2 accuracy    binary     0.782    10 0.0132  Preprocessor1_Model01
 2    10     2 brier_class binary     0.165    10 0.00604 Preprocessor1_Model01
 3    10     2 roc_auc     binary     0.864    10 0.0159  Preprocessor1_Model01
 4    32     2 accuracy    binary     0.789    10 0.0136  Preprocessor1_Model02
 5    32     2 brier_class binary     0.148    10 0.00701 Preprocessor1_Model02
 6    32     2 roc_auc     binary     0.881    10 0.0163  Preprocessor1_Model02
 7    55     2 accuracy    binary     0.778    10 0.0138  Preprocessor1_Model03
 8    55     2 brier_class binary     0.147    10 0.00677 Preprocessor1_Model03
 9    55     2 roc_auc     binary     0.881    10 0.0148  Preprocessor1_Model03
10    77     2 accuracy    binary     0.794    10 0.0153  Preprocessor1_Model04
# ℹ 65 more rows
…
