Data Science for Public Policy - 23 Geospatial Analysis with sf
…
# dimension after join -- lose international stations
dim(amtrak)

[1] 1080   21

# count the number of stations per state
amtrak |>
  as_tibble() |> # converting from sf to tibble speeds calculations
  group_by(NAME) |>
  summarize(number_of_stations = n()) |>
  arrange(desc(number_of_stations))

# A tibble: 49 × 2
   NAME         number_of_stations
   <chr>                     <int>
 1 California                  184
 2 Oregon                       87
 3 New York                     80
 4 Pennsylvania                 63
 5 Michigan                     54
 6 Washington                   50
 7 Illinois                     41
 8 Wisconsin                    37
 9 Florida                      31
10 Texas                        31
# ℹ 39 more rows
…
# spatial join the unbuffered shapes to the buffer shapes
amtrak_stations_joined <- st_join(
  amtrak_stations_buffered,
  amtrak_stations, 
  join = st_intersects
)

# count the station names
amtrak_stations_joined |>
  as_tibble() |>
  count(stationnam.x, sort = TRUE)

# A tibble: 1,007 × 2
   stationnam.x                   n
   <chr>                      <int>
 1 Monterey, CA                  27
 2 Yosemite National Park, CA    17
 3 Boston, MA                     9
 4 Salem, OR                      9
 5 Seaside, OR                    8
 6 Manchester Center, VT          6
 7 Eugene, OR                     5
 8 Las Vegas, NV                  5
 9 Oakland, CA                    5
10 Palm Springs, CA               5
# ℹ 997 more rows
…
